\BOOKMARK [1][-]{section.1}{Introduction}{}% 1
\BOOKMARK [2][-]{subsection.1.1}{For a layman}{section.1}% 2
\BOOKMARK [2][-]{subsection.1.2}{Formally}{section.1}% 3
\BOOKMARK [3][-]{subsubsection.1.2.1}{Decision trees}{subsection.1.2}% 4
\BOOKMARK [3][-]{subsubsection.1.2.2}{Ensemble Methods}{subsection.1.2}% 5
\BOOKMARK [1][-]{section.2}{Toy Example To Illustrate}{}% 6
\BOOKMARK [1][-]{section.3}{Application in R}{}% 7
\BOOKMARK [1][-]{section.4}{Pros \046 Cons}{}% 8
\BOOKMARK [2][-]{subsection.4.1}{Pros}{section.4}% 9
\BOOKMARK [2][-]{subsection.4.2}{Cons}{section.4}% 10
\BOOKMARK [1][-]{section.5}{Conclusion}{}% 11
\BOOKMARK [1][-]{section*.3}{References}{}% 12
\BOOKMARK [1][-]{IEEEbiography.0}{Biographies}{}% 13
\BOOKMARK [2][-]{IEEEbiography.1}{Debpriya Seal}{IEEEbiography.0}% 14
