\relax 
\@writefile{lot}{\contentsline {table}{\numberline {1}{\ignorespaces Table format for the data}}{11}}
\@writefile{lot}{\contentsline {table}{\numberline {2}{\ignorespaces Calculate the Indicated Similarity}}{12}}
